{
  "prod": {
    "awscloudformation": {
      "AuthRoleName": "amplify-nombolo-prod-120302-authRole",
      "UnauthRoleArn": "arn:aws:iam::181898683148:role/amplify-nombolo-prod-120302-unauthRole",
      "AuthRoleArn": "arn:aws:iam::181898683148:role/amplify-nombolo-prod-120302-authRole",
      "Region": "us-west-2",
      "DeploymentBucketName": "amplify-nombolo-prod-120302-deployment",
      "UnauthRoleName": "amplify-nombolo-prod-120302-unauthRole",
      "StackName": "amplify-nombolo-prod-120302",
      "StackId": "arn:aws:cloudformation:us-west-2:181898683148:stack/amplify-nombolo-prod-120302/69781470-f918-11ea-bb9b-02400ead0b83",
      "AmplifyAppId": "de6kvpmfifdr0"
    },
    "categories": {
      "auth": {
        "nomboloAUTH": {
          "facebookAppId": "788098451682293",
          "googleClientId": "598997315916-e5go4fu43q9tse2jpsc8kl1vpc017e9n.apps.googleusercontent.com"
        }
      }
    }
  }
}